<svg xmlns="http://www.w3.org/2000/svg" width="34.842" height="46.167" viewBox="0 0 34.842 46.167">
  <g id="Group_1526" data-name="Group 1526" transform="translate(-1295.431 -2873.5)">
    <path id="Path_11936" data-name="Path 11936" d="M655.052,74.665a16.421,16.421,0,1,0-31.1,7.364l14.676,20.383,15.458-22.073h-.044A16.385,16.385,0,0,0,655.052,74.665Z" transform="translate(674.22 2816.255)" fill="none" stroke="#5dff00" stroke-linecap="round" stroke-linejoin="round" stroke-width="2"/>
    <ellipse id="Ellipse_351" data-name="Ellipse 351" cx="11.957" cy="11.957" rx="11.957" ry="11.957" transform="translate(1300.895 2879.422)" fill="none" stroke="#5dff00" stroke-width="2"/>
    <g id="Group_1525" data-name="Group 1525" transform="translate(1305.868 2884.356)">
      <circle id="Ellipse_282" data-name="Ellipse 282" cx="3.38" cy="3.38" r="3.38" transform="translate(3.605 0)" fill="none" stroke="#5dff00" stroke-miterlimit="10" stroke-width="2"/>
      <path id="Path_11329" data-name="Path 11329" d="M283.171,705.076a6.985,6.985,0,0,1,13.97,0" transform="translate(-283.171 -689.113)" fill="none" stroke="#5dff00" stroke-linecap="round" stroke-linejoin="round" stroke-width="2"/>
    </g>
  </g>
</svg>
