<svg xmlns="http://www.w3.org/2000/svg" width="45.413" height="43.266" viewBox="0 0 45.413 43.266">
  <g id="Group_1535" data-name="Group 1535" transform="translate(-1399.587 -3253.288)">
    <g id="Group_1401" data-name="Group 1401" transform="translate(746 2854.788)">
      <path id="Path_1" data-name="Path 1" d="M1657.743,518h16.7" transform="translate(-982.13 -81.37)" fill="none" stroke="#fff" stroke-linecap="round" stroke-width="2"/>
      <g id="Group_1" data-name="Group 1" transform="translate(677.133 420.602)">
        <path id="Path_11674" data-name="Path 11674" d="M-248.416,331.8c6.554,1.31,5.025,10.835,5.025,10.835" transform="translate(254.095 -327.651)" fill="none" stroke="#fff" stroke-width="2"/>
        <circle id="Ellipse_329-2" data-name="Ellipse 329-2" cx="2.93" cy="2.93" r="2.93" fill="#fff"/>
      </g>
      <path id="Path_2" data-name="Path 2" d="M962.6,687.092v-4.537c0-1.445.847-2.617,1.891-2.617h30.179c1.044,0,1.891,1.172,1.891,2.617v26.4c0,1.446-.847,2.618-1.891,2.618h-2.918" transform="translate(-298.557 -280.438)" fill="none" stroke="#fff" stroke-linecap="round" stroke-linejoin="round" stroke-width="2"/>
      <g id="Group_2" data-name="Group 2" transform="translate(654.587 409.31)">
        <ellipse id="Ellipse_4" data-name="Ellipse 4" cx="6.604" cy="6.604" rx="6.604" ry="6.604" transform="translate(2.747 13.038) rotate(-80.783)" fill="none" stroke="#fff" stroke-linecap="round" stroke-linejoin="round" stroke-width="2"/>
        <path id="Path_6" data-name="Path 6" d="M227.919,924.9l4.727,3.754-6.882,12.583h-6.952L212,928.932l4.067-4.032" transform="translate(-212 -909.781)" fill="none" stroke="#fff" stroke-linecap="round" stroke-linejoin="round" stroke-width="2"/>
        <g id="Group_10" data-name="Group 10" transform="translate(8.446 16.092)">
          <path id="Path_7" data-name="Path 7" d="M237.6,927.7l.834,2.259h1.286l.869-2.259Z" transform="translate(-237.148 -927.7)" fill="#fff"/>
          <path id="Path_8" data-name="Path 8" d="M238.246,942.82l1.773-1.634-1.147-6.986h-1.286l-1.286,6.986Z" transform="translate(-236.3 -931.941)" fill="#fff"/>
        </g>
      </g>
    </g>
  </g>
</svg>
